Could not read previous export (for caching), doing full export.
Final: Exporting image
Next5: Exporting image
SelectOffRoad: Exporting image
SelectScenic: Exporting image
BusUser: Exporting image
SelectResident: Exporting image
Content5: Exporting image
Background5: Exporting image
<Group>-93: Exporting image
<Group>-92: Exporting image
<Clip Group>-17: Exporting image
<Clip Group>-17: Calculating vector mask bounds
<Clip Group>-16: Exporting image
<Clip Group>-16: Calculating vector mask bounds
<Group>-89: Exporting image
<Group>-88: Exporting image
<Group>-87: Exporting image
<Group>-86: Exporting image
<Group>-85: Exporting image
Next4b: Exporting image
Content4b: Exporting image
Background4b: Exporting image
<Group>-84: Exporting image
<Group>-83: Exporting image
<Clip Group>-15: Exporting image
<Clip Group>-15: Calculating vector mask bounds
<Clip Group>-14: Exporting image
<Clip Group>-14: Calculating vector mask bounds
<Group>-80: Exporting image
<Group>-79: Exporting image
<Group>-78: Exporting image
<Group>-77: Exporting image
<Group>-76: Exporting image
Overlay4a: Exporting image
Content4a: Exporting image
Background4a: Exporting image
<Group>-75: Exporting image
<Group>-74: Exporting image
<Clip Group>-13: Exporting image
<Clip Group>-13: Calculating vector mask bounds
<Clip Group>-12: Exporting image
<Clip Group>-12: Calculating vector mask bounds
<Group>-71: Exporting image
<Group>-70: Exporting image
<Group>-69: Exporting image
<Group>-68: Exporting image
<Group>-67: Exporting image
Time4: Exporting image
Content4: Exporting image
Background4: Exporting image
<Group>-66: Exporting image
<Group>-65: Exporting image
<Clip Group>-11: Exporting image
<Clip Group>-11: Calculating vector mask bounds
<Clip Group>-10: Exporting image
<Clip Group>-10: Calculating vector mask bounds
<Group>-62: Exporting image
<Group>-61: Exporting image
<Group>-60: Exporting image
<Group>-59: Exporting image
<Group>-58: Exporting image
Next3: Exporting image
Check2: Exporting image
Check1: Exporting image
Content3: Exporting image
<Group>-57: Exporting image
<Group>-56: Exporting image
<Group>-55: Exporting image
<Group>-54: Exporting image
<Group>-53: Exporting image
<Group>-52: Exporting image
<Group>-51: Exporting image
Background3: Exporting image
<Group>-50: Exporting image
<Group>-49: Exporting image
<Clip Group>-9: Exporting image
<Clip Group>-9: Calculating vector mask bounds
<Clip Group>-8: Exporting image
<Clip Group>-8: Calculating vector mask bounds
<Group>-46: Exporting image
<Group>-45: Exporting image
<Group>-44: Exporting image
<Group>-43: Exporting image
<Group>-42: Exporting image
Next2: Exporting image
Select2: Exporting image
Content2: Exporting image
Background2: Exporting image
<Group>-41: Exporting image
<Group>-40: Exporting image
<Clip Group>-7: Exporting image
<Clip Group>-7: Calculating vector mask bounds
<Clip Group>-6: Exporting image
<Clip Group>-6: Calculating vector mask bounds
<Group>-37: Exporting image
<Group>-36: Exporting image
<Group>-35: Exporting image
<Group>-34: Exporting image
<Group>-33: Exporting image
Next1: Exporting image
SelectSights1: Exporting image
Content1: Exporting image
Background1: Exporting image
<Group>-32: Exporting image
<Group>-31: Exporting image
<Clip Group>-5: Exporting image
<Clip Group>-5: Calculating vector mask bounds
<Clip Group>-4: Exporting image
<Clip Group>-4: Calculating vector mask bounds
<Group>-28: Exporting image
<Group>-27: Exporting image
<Group>-26: Exporting image
<Group>-25: Exporting image
<Group>-24: Exporting image
<Group>-23: Exporting image
<Group>-22: Exporting image
<Group>-21: Exporting image
Background0: Exporting image
<Group>-20: Exporting image
<Group>-19: Exporting image
<Group>-18: Exporting image
<Clip Group>-2-2: Exporting image
<Clip Group>-2-2: Calculating vector mask bounds
<Clip Group>-3: Exporting image
<Clip Group>-3: Calculating vector mask bounds
<Group>-15: Exporting image
<Group>-14: Exporting image
<Group>-13: Exporting image
<Group>-12: Exporting image
<Group>-11-2: Exporting image
<Group>-10-2: Exporting image
<Group>-9-2: Exporting image
<Group>-8-2: Exporting image
<Group>-7-2: Exporting image
<Group>-6-2: Exporting image
<Group>-5-2: Exporting image
<Group>-4-2: Exporting image
<Group>-3-2: Exporting image
<Group>-2-2: Exporting image
<Group>-11: Exporting image
MainSettings: Exporting image
AllFriends: Exporting image
CreateDerive: Exporting image
BusClick: Exporting image
Settings: Exporting image
<Group>-10: Exporting image
FriendsList: Exporting image
Map: Exporting image
Background: Exporting image
<Group>-9: Exporting image
<Group>-8: Exporting image
<Clip Group>-2: Exporting image
<Clip Group>-2: Calculating vector mask bounds
<Clip Group>: Exporting image
<Clip Group>: Calculating vector mask bounds
<Group>-5: Exporting image
<Group>-4: Exporting image
<Group>-3: Exporting image
<Group>-2: Exporting image
<Group>: Exporting image
170 views changed
Success: /Users/ryanma/Dropbox/Data_Ryan/CS_160/Derive/Derive.framer/imported/PhoneScreens-01
